Verify the pedigree entries
…
Are there germplasmName in the pednames2genos match table with multiple DNA samples?

pednames2genos %>% count(germplasmName) %>% arrange(desc(n))

# A tibble: 7,185 × 2
   germplasmName          n
   <chr>              <int>
 1 IITA-TMS-IBA000070    17
 2 TMEB419               16
 3 TMS13F1160P0004       16
 4 IITA-TMS-IBA30572     15
 5 IITA-TMS-IBA980581    14
 6 TMS13F1053P0010       10
 7 IITA-TMS-IBA982101     9
 8 TMS13F1343P0022        8
 9 IITA-TMS-IBA070593     7
10 TMEB693                6
# … with 7,175 more rows
…
  left_join(pednames2genos %>% 
              select(-GID,-Cohort,-HasBLUPs) %>% 
              rename(Female_Parent=germplasmName,
                     DamID=FullSampleName)) %>% 
  left_join(pednames2genos %>% 
              select(-GID,-Cohort,-HasBLUPs) %>% 
              rename(Male_Parent=germplasmName,
                     SireID=FullSampleName)) 
ped2genos %<>% 
  filter(!is.na(FullSampleName),
         !is.na(DamID),
         !is.na(SireID))
ped2genos %>% distinct# %>% filter(grepl("TMS20",germplasmName))

# A tibble: 6,257 × 7
   germplasmName  Female_Parent  Male_Parent  Cohort FullSampleName DamID SireID
   <chr>          <chr>          <chr>        <chr>  <chr>          <chr> <chr> 
 1 TMS13F1002P00… IITA-TMS-IBA9… IITA-TMS-MO… TMS13  2013_0002_1:2… I930… M9800…
 2 TMS13F1002P00… IITA-TMS-IBA9… IITA-TMS-MO… TMS13  2013_0002_2:2… I930… M9800…
 3 TMS13F1002P00… IITA-TMS-IBA9… IITA-TMS-MO… TMS13  2013_0002_3:2… I930… M9800…
 4 TMS13F1002P00… IITA-TMS-IBA9… IITA-TMS-MO… TMS13  2013_0002_4:2… I930… M9800…
 5 TMS13F1002P00… IITA-TMS-IBA9… IITA-TMS-MO… TMS13  2013_0002_5:2… I930… M9800…
 6 TMS13F1002P00… IITA-TMS-IBA9… IITA-TMS-MO… TMS13  2013_0002_6:2… I930… M9800…
 7 TMS13F1002P00… IITA-TMS-IBA9… IITA-TMS-MO… TMS13  2013_0002_7:2… I930… M9800…
 8 TMS13F1002P00… IITA-TMS-IBA9… IITA-TMS-MO… TMS13  2013_0002_8:2… I930… M9800…
 9 TMS13F1002P00… IITA-TMS-IBA9… IITA-TMS-MO… TMS13  2013_0002_9:2… I930… M9800…
10 TMS13F1002P00… IITA-TMS-IBA9… IITA-TMS-MO… TMS13  2013_0002_10:… I930… M9800…
# … with 6,247 more rows
…
